^C:\USERS\СЕРГЕЙ\SOURCE\REPOS\PROJECT3\MAIN.CPP
C:\USERS\Сергей\SOURCE\REPOS\PROJECT3\DEBUG\VC142.PDB
C:\USERS\Сергей\SOURCE\REPOS\PROJECT3\DEBUG\VC142.IDB
C:\USERS\Сергей\SOURCE\REPOS\PROJECT3\DEBUG\MAIN.OBJ
