^C:\USERS\СЕРГЕЙ\SOURCE\REPOS\PROJECT3\DEBUG\MAIN.OBJ
C:\USERS\Сергей\SOURCE\REPOS\PROJECT3\DEBUG\PROJECT3.EXE
C:\USERS\Сергей\SOURCE\REPOS\PROJECT3\DEBUG\PROJECT3.ILK
C:\USERS\СЕРГЕЙ\SOURCE\REPOS\PROJECT3\DEBUG\PROJECT3.PDB
